; Engine configuration file.
; It's best edited using the editor UI and not directly,
; since the parameters that go here are not all obvious.
;
; Format:
;   [section] ; section goes between []
;   param=value ; assign values to parameters

config_version=4

_global_script_classes=[  ]
_global_script_class_icons={

}

[application]

config/name="Game Jam"
run/main_scene="res://Scenes/MainMenu.tscn"
config/icon="res://icon.png"

[autoload]

global="*res://Scripts/global.gd"

[display]

window/stretch/mode="2d"
window/stretch/aspect="keep"

[rendering]

environment/default_environment="res://default_env.tres"
